{
  "type": "GROUP",
"name": "Global Information",
"path": "",
"pathFormatted": "group_missing-name-b06d1",
"stats": {
    "name": "Global Information",
    "numberOfRequests": {
        "total": 1000,
        "ok": 0,
        "ko": 1000
    },
    "minResponseTime": {
        "total": 0,
        "ok": 0,
        "ko": 0
    },
    "maxResponseTime": {
        "total": 1197,
        "ok": 0,
        "ko": 1197
    },
    "meanResponseTime": {
        "total": 52,
        "ok": 0,
        "ko": 52
    },
    "standardDeviation": {
        "total": 189,
        "ok": 0,
        "ko": 189
    },
    "percentiles1": {
        "total": 0,
        "ok": 0,
        "ko": 0
    },
    "percentiles2": {
        "total": 0,
        "ok": 0,
        "ko": 0
    },
    "percentiles3": {
        "total": 629,
        "ok": 0,
        "ko": 629
    },
    "percentiles4": {
        "total": 676,
        "ok": 0,
        "ko": 676
    },
    "group1": {
        "name": "t < 800 ms",
        "count": 0,
        "percentage": 0
    },
    "group2": {
        "name": "800 ms < t < 1200 ms",
        "count": 0,
        "percentage": 0
    },
    "group3": {
        "name": "t > 1200 ms",
        "count": 0,
        "percentage": 0
    },
    "group4": {
        "name": "failed",
        "count": 1000,
        "percentage": 100
    },
    "meanNumberOfRequestsPerSecond": {
        "total": 90.9090909090909,
        "ok": 0,
        "ko": 90.9090909090909
    }
},
"contents": {
"req_request-0-684d2": {
        "type": "REQUEST",
        "name": "request_0",
"path": "request_0",
"pathFormatted": "req_request-0-684d2",
"stats": {
    "name": "request_0",
    "numberOfRequests": {
        "total": 1000,
        "ok": 0,
        "ko": 1000
    },
    "minResponseTime": {
        "total": 0,
        "ok": 0,
        "ko": 0
    },
    "maxResponseTime": {
        "total": 1197,
        "ok": 0,
        "ko": 1197
    },
    "meanResponseTime": {
        "total": 52,
        "ok": 0,
        "ko": 52
    },
    "standardDeviation": {
        "total": 189,
        "ok": 0,
        "ko": 189
    },
    "percentiles1": {
        "total": 0,
        "ok": 0,
        "ko": 0
    },
    "percentiles2": {
        "total": 0,
        "ok": 0,
        "ko": 0
    },
    "percentiles3": {
        "total": 629,
        "ok": 0,
        "ko": 629
    },
    "percentiles4": {
        "total": 676,
        "ok": 0,
        "ko": 676
    },
    "group1": {
        "name": "t < 800 ms",
        "count": 0,
        "percentage": 0
    },
    "group2": {
        "name": "800 ms < t < 1200 ms",
        "count": 0,
        "percentage": 0
    },
    "group3": {
        "name": "t > 1200 ms",
        "count": 0,
        "percentage": 0
    },
    "group4": {
        "name": "failed",
        "count": 1000,
        "percentage": 100
    },
    "meanNumberOfRequestsPerSecond": {
        "total": 90.9090909090909,
        "ok": 0,
        "ko": 90.9090909090909
    }
}
    }
}

}