{
    "name": "Global Information",
    "numberOfRequests": {
        "total": 1000,
        "ok": 0,
        "ko": 1000
    },
    "minResponseTime": {
        "total": 0,
        "ok": 0,
        "ko": 0
    },
    "maxResponseTime": {
        "total": 4403,
        "ok": 0,
        "ko": 4403
    },
    "meanResponseTime": {
        "total": 84,
        "ok": 0,
        "ko": 84
    },
    "standardDeviation": {
        "total": 432,
        "ok": 0,
        "ko": 432
    },
    "percentiles1": {
        "total": 0,
        "ok": 0,
        "ko": 0
    },
    "percentiles2": {
        "total": 0,
        "ok": 0,
        "ko": 0
    },
    "percentiles3": {
        "total": 659,
        "ok": 0,
        "ko": 659
    },
    "percentiles4": {
        "total": 734,
        "ok": 0,
        "ko": 734
    },
    "group1": {
        "name": "t < 800 ms",
        "count": 0,
        "percentage": 0
    },
    "group2": {
        "name": "800 ms < t < 1200 ms",
        "count": 0,
        "percentage": 0
    },
    "group3": {
        "name": "t > 1200 ms",
        "count": 0,
        "percentage": 0
    },
    "group4": {
        "name": "failed",
        "count": 1000,
        "percentage": 100
    },
    "meanNumberOfRequestsPerSecond": {
        "total": 90.9090909090909,
        "ok": 0,
        "ko": 90.9090909090909
    }
}