{
  "type": "GROUP",
"name": "Global Information",
"path": "",
"pathFormatted": "group_missing-name-b06d1",
"stats": {
    "name": "Global Information",
    "numberOfRequests": {
        "total": 1030,
        "ok": 40,
        "ko": 990
    },
    "minResponseTime": {
        "total": 0,
        "ok": 146,
        "ko": 0
    },
    "maxResponseTime": {
        "total": 2512,
        "ok": 2512,
        "ko": 651
    },
    "meanResponseTime": {
        "total": 74,
        "ok": 937,
        "ko": 39
    },
    "standardDeviation": {
        "total": 267,
        "ok": 728,
        "ko": 147
    },
    "percentiles1": {
        "total": 0,
        "ok": 793,
        "ko": 0
    },
    "percentiles2": {
        "total": 0,
        "ok": 1167,
        "ko": 0
    },
    "percentiles3": {
        "total": 590,
        "ok": 2353,
        "ko": 579
    },
    "percentiles4": {
        "total": 972,
        "ok": 2464,
        "ko": 610
    },
    "group1": {
        "name": "t < 800 ms",
        "count": 21,
        "percentage": 2
    },
    "group2": {
        "name": "800 ms < t < 1200 ms",
        "count": 9,
        "percentage": 1
    },
    "group3": {
        "name": "t > 1200 ms",
        "count": 10,
        "percentage": 1
    },
    "group4": {
        "name": "failed",
        "count": 990,
        "percentage": 96
    },
    "meanNumberOfRequestsPerSecond": {
        "total": 93.63636363636364,
        "ok": 3.6363636363636362,
        "ko": 90.0
    }
},
"contents": {
"req_request-0-684d2": {
        "type": "REQUEST",
        "name": "request_0",
"path": "request_0",
"pathFormatted": "req_request-0-684d2",
"stats": {
    "name": "request_0",
    "numberOfRequests": {
        "total": 1000,
        "ok": 10,
        "ko": 990
    },
    "minResponseTime": {
        "total": 0,
        "ok": 786,
        "ko": 0
    },
    "maxResponseTime": {
        "total": 982,
        "ok": 982,
        "ko": 651
    },
    "meanResponseTime": {
        "total": 47,
        "ok": 894,
        "ko": 39
    },
    "standardDeviation": {
        "total": 169,
        "ok": 64,
        "ko": 147
    },
    "percentiles1": {
        "total": 0,
        "ok": 915,
        "ko": 0
    },
    "percentiles2": {
        "total": 0,
        "ok": 940,
        "ko": 0
    },
    "percentiles3": {
        "total": 582,
        "ok": 966,
        "ko": 579
    },
    "percentiles4": {
        "total": 652,
        "ok": 979,
        "ko": 610
    },
    "group1": {
        "name": "t < 800 ms",
        "count": 2,
        "percentage": 0
    },
    "group2": {
        "name": "800 ms < t < 1200 ms",
        "count": 8,
        "percentage": 1
    },
    "group3": {
        "name": "t > 1200 ms",
        "count": 0,
        "percentage": 0
    },
    "group4": {
        "name": "failed",
        "count": 990,
        "percentage": 99
    },
    "meanNumberOfRequestsPerSecond": {
        "total": 90.9090909090909,
        "ok": 0.9090909090909091,
        "ko": 90.0
    }
}
    },"req_adsbygoogle-js-e15e4": {
        "type": "REQUEST",
        "name": "adsbygoogle.js",
"path": "adsbygoogle.js",
"pathFormatted": "req_adsbygoogle-js-e15e4",
"stats": {
    "name": "adsbygoogle.js",
    "numberOfRequests": {
        "total": 10,
        "ok": 10,
        "ko": 0
    },
    "minResponseTime": {
        "total": 146,
        "ok": 146,
        "ko": 0
    },
    "maxResponseTime": {
        "total": 288,
        "ok": 288,
        "ko": 0
    },
    "meanResponseTime": {
        "total": 200,
        "ok": 200,
        "ko": 0
    },
    "standardDeviation": {
        "total": 36,
        "ok": 36,
        "ko": 0
    },
    "percentiles1": {
        "total": 193,
        "ok": 193,
        "ko": 0
    },
    "percentiles2": {
        "total": 204,
        "ok": 204,
        "ko": 0
    },
    "percentiles3": {
        "total": 263,
        "ok": 263,
        "ko": 0
    },
    "percentiles4": {
        "total": 283,
        "ok": 283,
        "ko": 0
    },
    "group1": {
        "name": "t < 800 ms",
        "count": 10,
        "percentage": 100
    },
    "group2": {
        "name": "800 ms < t < 1200 ms",
        "count": 0,
        "percentage": 0
    },
    "group3": {
        "name": "t > 1200 ms",
        "count": 0,
        "percentage": 0
    },
    "group4": {
        "name": "failed",
        "count": 0,
        "percentage": 0
    },
    "meanNumberOfRequestsPerSecond": {
        "total": 0.9090909090909091,
        "ok": 0.9090909090909091,
        "ko": 0
    }
}
    },"req_angular-js-682a0": {
        "type": "REQUEST",
        "name": "angular.js",
"path": "angular.js",
"pathFormatted": "req_angular-js-682a0",
"stats": {
    "name": "angular.js",
    "numberOfRequests": {
        "total": 10,
        "ok": 10,
        "ko": 0
    },
    "minResponseTime": {
        "total": 1721,
        "ok": 1721,
        "ko": 0
    },
    "maxResponseTime": {
        "total": 2512,
        "ok": 2512,
        "ko": 0
    },
    "meanResponseTime": {
        "total": 2094,
        "ok": 2094,
        "ko": 0
    },
    "standardDeviation": {
        "total": 277,
        "ok": 277,
        "ko": 0
    },
    "percentiles1": {
        "total": 2175,
        "ok": 2175,
        "ko": 0
    },
    "percentiles2": {
        "total": 2318,
        "ok": 2318,
        "ko": 0
    },
    "percentiles3": {
        "total": 2456,
        "ok": 2456,
        "ko": 0
    },
    "percentiles4": {
        "total": 2501,
        "ok": 2501,
        "ko": 0
    },
    "group1": {
        "name": "t < 800 ms",
        "count": 0,
        "percentage": 0
    },
    "group2": {
        "name": "800 ms < t < 1200 ms",
        "count": 0,
        "percentage": 0
    },
    "group3": {
        "name": "t > 1200 ms",
        "count": 10,
        "percentage": 100
    },
    "group4": {
        "name": "failed",
        "count": 0,
        "percentage": 0
    },
    "meanNumberOfRequestsPerSecond": {
        "total": 0.9090909090909091,
        "ok": 0.9090909090909091,
        "ko": 0
    }
}
    },"req_bootstrap-min-c-5b8a7": {
        "type": "REQUEST",
        "name": "bootstrap.min.css",
"path": "bootstrap.min.css",
"pathFormatted": "req_bootstrap-min-c-5b8a7",
"stats": {
    "name": "bootstrap.min.css",
    "numberOfRequests": {
        "total": 10,
        "ok": 10,
        "ko": 0
    },
    "minResponseTime": {
        "total": 438,
        "ok": 438,
        "ko": 0
    },
    "maxResponseTime": {
        "total": 855,
        "ok": 855,
        "ko": 0
    },
    "meanResponseTime": {
        "total": 563,
        "ok": 563,
        "ko": 0
    },
    "standardDeviation": {
        "total": 126,
        "ok": 126,
        "ko": 0
    },
    "percentiles1": {
        "total": 524,
        "ok": 524,
        "ko": 0
    },
    "percentiles2": {
        "total": 639,
        "ok": 639,
        "ko": 0
    },
    "percentiles3": {
        "total": 767,
        "ok": 767,
        "ko": 0
    },
    "percentiles4": {
        "total": 837,
        "ok": 837,
        "ko": 0
    },
    "group1": {
        "name": "t < 800 ms",
        "count": 9,
        "percentage": 90
    },
    "group2": {
        "name": "800 ms < t < 1200 ms",
        "count": 1,
        "percentage": 10
    },
    "group3": {
        "name": "t > 1200 ms",
        "count": 0,
        "percentage": 0
    },
    "group4": {
        "name": "failed",
        "count": 0,
        "percentage": 0
    },
    "meanNumberOfRequestsPerSecond": {
        "total": 0.9090909090909091,
        "ok": 0.9090909090909091,
        "ko": 0
    }
}
    }
}

}