{
    "name": "Global Information",
    "numberOfRequests": {
        "total": 13,
        "ok": 13,
        "ko": 0
    },
    "minResponseTime": {
        "total": 202,
        "ok": 202,
        "ko": 0
    },
    "maxResponseTime": {
        "total": 897,
        "ok": 897,
        "ko": 0
    },
    "meanResponseTime": {
        "total": 323,
        "ok": 323,
        "ko": 0
    },
    "standardDeviation": {
        "total": 188,
        "ok": 188,
        "ko": 0
    },
    "percentiles1": {
        "total": 244,
        "ok": 244,
        "ko": 0
    },
    "percentiles2": {
        "total": 311,
        "ok": 311,
        "ko": 0
    },
    "percentiles3": {
        "total": 646,
        "ok": 646,
        "ko": 0
    },
    "percentiles4": {
        "total": 847,
        "ok": 847,
        "ko": 0
    },
    "group1": {
        "name": "t < 800 ms",
        "count": 12,
        "percentage": 92
    },
    "group2": {
        "name": "800 ms < t < 1200 ms",
        "count": 1,
        "percentage": 8
    },
    "group3": {
        "name": "t > 1200 ms",
        "count": 0,
        "percentage": 0
    },
    "group4": {
        "name": "failed",
        "count": 0,
        "percentage": 0
    },
    "meanNumberOfRequestsPerSecond": {
        "total": 0.48148148148148145,
        "ok": 0.48148148148148145,
        "ko": 0
    }
}