{
  "type": "GROUP",
"name": "Global Information",
"path": "",
"pathFormatted": "group_missing-name-b06d1",
"stats": {
    "name": "Global Information",
    "numberOfRequests": {
        "total": 1000,
        "ok": 10,
        "ko": 990
    },
    "minResponseTime": {
        "total": 0,
        "ok": 3156,
        "ko": 0
    },
    "maxResponseTime": {
        "total": 4470,
        "ok": 4470,
        "ko": 674
    },
    "meanResponseTime": {
        "total": 76,
        "ok": 3477,
        "ko": 41
    },
    "standardDeviation": {
        "total": 377,
        "ok": 361,
        "ko": 156
    },
    "percentiles1": {
        "total": 0,
        "ok": 3355,
        "ko": 0
    },
    "percentiles2": {
        "total": 0,
        "ok": 3520,
        "ko": 0
    },
    "percentiles3": {
        "total": 623,
        "ok": 4106,
        "ko": 616
    },
    "percentiles4": {
        "total": 699,
        "ok": 4397,
        "ko": 653
    },
    "group1": {
        "name": "t < 800 ms",
        "count": 0,
        "percentage": 0
    },
    "group2": {
        "name": "800 ms < t < 1200 ms",
        "count": 0,
        "percentage": 0
    },
    "group3": {
        "name": "t > 1200 ms",
        "count": 10,
        "percentage": 1
    },
    "group4": {
        "name": "failed",
        "count": 990,
        "percentage": 99
    },
    "meanNumberOfRequestsPerSecond": {
        "total": 90.9090909090909,
        "ok": 0.9090909090909091,
        "ko": 90.0
    }
},
"contents": {
"req_request-0-684d2": {
        "type": "REQUEST",
        "name": "request_0",
"path": "request_0",
"pathFormatted": "req_request-0-684d2",
"stats": {
    "name": "request_0",
    "numberOfRequests": {
        "total": 1000,
        "ok": 10,
        "ko": 990
    },
    "minResponseTime": {
        "total": 0,
        "ok": 3156,
        "ko": 0
    },
    "maxResponseTime": {
        "total": 4470,
        "ok": 4470,
        "ko": 674
    },
    "meanResponseTime": {
        "total": 76,
        "ok": 3477,
        "ko": 41
    },
    "standardDeviation": {
        "total": 377,
        "ok": 361,
        "ko": 156
    },
    "percentiles1": {
        "total": 0,
        "ok": 3355,
        "ko": 0
    },
    "percentiles2": {
        "total": 0,
        "ok": 3520,
        "ko": 0
    },
    "percentiles3": {
        "total": 623,
        "ok": 4106,
        "ko": 616
    },
    "percentiles4": {
        "total": 699,
        "ok": 4397,
        "ko": 653
    },
    "group1": {
        "name": "t < 800 ms",
        "count": 0,
        "percentage": 0
    },
    "group2": {
        "name": "800 ms < t < 1200 ms",
        "count": 0,
        "percentage": 0
    },
    "group3": {
        "name": "t > 1200 ms",
        "count": 10,
        "percentage": 1
    },
    "group4": {
        "name": "failed",
        "count": 990,
        "percentage": 99
    },
    "meanNumberOfRequestsPerSecond": {
        "total": 90.9090909090909,
        "ok": 0.9090909090909091,
        "ko": 90.0
    }
}
    }
}

}