{
    "name": "Global Information",
    "numberOfRequests": {
        "total": 1000,
        "ok": 10,
        "ko": 990
    },
    "minResponseTime": {
        "total": 0,
        "ok": 1631,
        "ko": 0
    },
    "maxResponseTime": {
        "total": 2269,
        "ok": 2269,
        "ko": 743
    },
    "meanResponseTime": {
        "total": 63,
        "ok": 1973,
        "ko": 44
    },
    "standardDeviation": {
        "total": 254,
        "ok": 196,
        "ko": 166
    },
    "percentiles1": {
        "total": 0,
        "ok": 2012,
        "ko": 0
    },
    "percentiles2": {
        "total": 0,
        "ok": 2073,
        "ko": 0
    },
    "percentiles3": {
        "total": 653,
        "ok": 2255,
        "ko": 646
    },
    "percentiles4": {
        "total": 752,
        "ok": 2266,
        "ko": 711
    },
    "group1": {
        "name": "t < 800 ms",
        "count": 0,
        "percentage": 0
    },
    "group2": {
        "name": "800 ms < t < 1200 ms",
        "count": 0,
        "percentage": 0
    },
    "group3": {
        "name": "t > 1200 ms",
        "count": 10,
        "percentage": 1
    },
    "group4": {
        "name": "failed",
        "count": 990,
        "percentage": 99
    },
    "meanNumberOfRequestsPerSecond": {
        "total": 90.9090909090909,
        "ok": 0.9090909090909091,
        "ko": 90.0
    }
}